<?xml version="1.0" encoding="UTF-8"?>
<!DOCTYPE svg PUBLIC "-//W3C//DTD SVG 1.1//EN" "http://www.w3.org/Graphics/SVG/1.1/DTD/svg11.dtd">
<!-- Creator: CorelDRAW 2018 (64-Bit) -->
<svg xmlns="http://www.w3.org/2000/svg" xml:space="preserve" width="10mm" height="10mm" version="1.1" style="shape-rendering:geometricPrecision; text-rendering:geometricPrecision; image-rendering:optimizeQuality; fill-rule:evenodd; clip-rule:evenodd"
viewBox="0 0 1000 1000"
 xmlns:xlink="http://www.w3.org/1999/xlink">
 <defs>
  <style type="text/css">
   <![CDATA[
    .fil0 {fill:#224D59}
   ]]>
  </style>
 </defs>
 <g id="Слой_x0020_1">
  <metadata id="CorelCorpID_0Corel-Layer"/>
  <path class="fil0" d="M99.52 901.78l14.71 -49.86 35.81 33.2 -50.52 16.66zm48.89 -176.77l128.29 124.87c-27.42,3.83 -59.56,16.62 -86.08,22.77l-61.64 -64.94c4.52,-24.89 17.31,-57.03 19.43,-82.7zm167.04 103.77l-144.31 -140.56 443.1 -446.68 144.3 140.56 -443.09 446.68zm330.48 -615.35l28.28 -31.41 143.93 140.47 -28.27 31.41 -143.94 -140.47zm198.61 82.66l-138.92 -142.34c91.38,-144.47 289.05,41.8 138.92,142.34zm-794.56 632.83c0,47.42 85.72,3.46 167.89,-21.96 76.35,-23.59 94.4,-17.77 139.82,-64.09 0,0 595.34,-572.2 592.33,-645.25 -3.3,-11.65 -90.89,-134.44 -168.75,-147.64 -60.86,0 -660.28,640.56 -660.28,640.56l-71.01 238.38z"/>
 </g>
</svg>
